module nats

go 1.17

require (
	github.com/go-chi/chi v1.5.4
	github.com/go-pg/pg/v10 v10.11.0
	github.com/nats-io/stan.go v0.10.4
)

require (
	github.com/go-pg/zerochecker v0.2.0 // indirect
	github.com/gogo/protobuf v1.3.2 // indirect
	github.com/golang/protobuf v1.5.3 // indirect
	github.com/hashicorp/golang-lru v1.0.1 // indirect
	github.com/jinzhu/inflection v1.0.0 // indirect
	github.com/nats-io/nats-server/v2 v2.9.15 // indirect
	github.com/nats-io/nats-streaming-server v0.25.3 // indirect
	github.com/nats-io/nats.go v1.24.0 // indirect
	github.com/nats-io/nkeys v0.3.0 // indirect
	github.com/nats-io/nuid v1.0.1 // indirect
	github.com/stretchr/testify v1.7.1 // indirect
	github.com/tmthrgd/go-hex v0.0.0-20190904060850-447a3041c3bc // indirect
	github.com/vmihailenco/bufpool v0.1.11 // indirect
	github.com/vmihailenco/msgpack/v5 v5.3.4 // indirect
	github.com/vmihailenco/tagparser v0.1.2 // indirect
	github.com/vmihailenco/tagparser/v2 v2.0.0 // indirect
	golang.org/x/crypto v0.6.0 // indirect
	golang.org/x/sys v0.5.0 // indirect
	google.golang.org/protobuf v1.29.0 // indirect
	mellium.im/sasl v0.3.1 // indirect
)
